…
``` r
unnest(json$facets$locations$items)
```

    ## Warning: `cols` is now required when using `unnest()`.
    ## ℹ Please use `cols = c()`.

    ## # A tibble: 21 × 2
    ##    id       total
    ##    <chr>    <int>
    ##  1 NO08       134
    ##  2 NO081      108
    ##  3 NO0         95
    ##  4 anyw-cou    56
    ##  5 NO0A        31
    ##  6 NO07        20
    ##  7 NO06        16
    ##  8 NO060       16
    ##  9 NO0A3       16
    ## 10 NO082       13
    ## # ℹ 11 more rows
…
